[gd_scene load_steps=2 format=1]

[ext_resource path="res://Scripts/Tutorial.gd" type="Script" id=1]

[node name="SceneRoot" type="Node2D"]

script/script = ExtResource( 1 )

[node name="TutorialWindow" type="WindowDialog" parent="." groups=[ "MotionLocking" ]]

visibility/visible = false
visibility/light_mask = 0
focus/ignore_mouse = false
focus/stop_mouse = true
size_flags/horizontal = 2
size_flags/vertical = 2
margin/left = 0.0
margin/top = 0.0
margin/right = 16.0
margin/bottom = 40.0
popup/exclusive = true
window/title = "Tutorial!"

[node name="RichTextLabel" type="RichTextLabel" parent="TutorialWindow" groups=[ "MainTextsFontType" ]]

visibility/light_mask = 0
focus/ignore_mouse = false
focus/stop_mouse = true
size_flags/horizontal = 2
size_flags/vertical = 2
margin/left = 0.0
margin/top = 0.0
margin/right = 40.0
margin/bottom = 40.0
bbcode/enabled = false
bbcode/bbcode = ""
visible_characters = -1


